Main,Xpath,Value
,/Envelope/Body/getActorsByIdResponse/actor/actor_id,123
,/Envelope/Body/getActorsByIdResponse/actor/firstName,[A-Z]+
,/Envelope/Body/getActorsByIdResponse/actor/lastName,[A-Z \?]+
